<?xml version="1.0" encoding="utf-8"?>
<!-- Generator: Adobe Illustrator 23.0.2, SVG Export Plug-In . SVG Version: 6.00 Build 0)  -->
<svg version="1.1" id="Layer_1" xmlns="http://www.w3.org/2000/svg" xmlns:xlink="http://www.w3.org/1999/xlink" x="0px" y="0px"
	 viewBox="0 0 400 400" style="enable-background:new 0 0 400 400;" xml:space="preserve">
<style type="text/css">
	.st0{fill:#262262;stroke:#000000;stroke-width:3;stroke-linecap:round;stroke-miterlimit:10;}
	.st1{fill:none;stroke:#000000;stroke-width:3;stroke-linecap:round;stroke-miterlimit:10;}
	.st2{fill:#2B3990;stroke:#000000;stroke-width:3;stroke-linecap:round;stroke-miterlimit:10;}
	.st3{fill:#D1D3D4;stroke:#000000;stroke-width:3;stroke-linecap:round;stroke-miterlimit:10;}
</style>
<g>
	<path class="st0" d="M253.99,11.17c0.66,7.51,1.02,39.52,0.6,47.05c-12.29,1.38-24.61,1.11-36.97,0.79
		c-18.31-0.47-36.64-0.98-54.88-2.62c-7.74-0.7-10.05,11.21-17.47,8.88h-1.87c0.69-5.59-0.69-43.66,0-49.25"/>
	<path class="st1" d="M198.75,368.82"/>
	<path class="st2" d="M253.99,11.17C237.99,1.39,215.44-1.36,196.8,0.59s-35.62,9.51-53.4,15.43c1.95,4.47,6.3,6.31,11.02,7.57
		c11.9,3.18,38.05,0.48,50.37,0.9c3.75,0.13,7.13-7.93,7.13-7.93c0.64,0.15,0.07,1.17,0.36,1.76c0.61,1.23,2.19,1.57,3.49,2.02
		C234.76,16.79,237.31,20.92,253.99,11.17"/>
	<path class="st1" d="M209.26,20.33"/>
	<path class="st0" d="M144.04,34c-3.37-1.16-7.05-0.97-10.59-0.55c-14.17,2.3-29.54,5.31-41.94,12.55
		C78.47,53.6,68.38,65.16,62.15,78.91c-3.04,6.71-4,14.15-4.91,21.46c-6.72,53.58-13.45,107.22-16.39,161.15
		c-2.49,45.66-2.27,91.54-8.15,136.89c12.99-4.51,27.67-3.93,40.25,1.6c2.99-26.15,7.17-52.17,12.51-77.94
		c3.96-19.09,8.57-38.11,10.66-57.49c4.25-39.49,7.01-89.77,14.02-127.86c7.6,70.51,9.93,144.45-3.84,208.69
		c31.56,18.67,60.69,26.14,97.26,23.42c36.57,2.72,67.16-17.81,98.72-36.48c-3.83-65.72-16.95-141.4-13.97-207.17
		c7.01,38.08,11.32,99.9,15.57,139.4c2.09,19.39,6.7,38.4,10.66,57.49c5.35,25.77,9.52,51.79,12.51,77.94
		c12.59-5.52,27.27-6.11,40.25-1.6c-5.88-45.35-5.66-91.23-8.15-136.89c-2.94-53.92-9.67-107.56-16.39-161.15
		c-0.92-7.31-1.87-14.75-4.91-21.46c-6.24-13.75-16.33-25.31-29.37-32.91c-12.4-7.24-27.76-10.25-41.94-12.55
		c-3.54-0.41-7.22-0.6-10.59,0.55c-3.19,1.09-5.84,3.29-8.56,5.29c-2.74,2.01-67.24,27.37-103.35-5.11"/>
	<path class="st3" d="M205.67,48.74c1.92,48.39,3.23,96.94,5.15,145.33c1.69,42.59,3.38,85.26,0.91,127.81
		c-0.9,15.44-2.5,31.4-10.15,44.85c-0.79-0.01-4.78-0.01-4.78-0.01l-0.03,0.01c0,0,9.25-29.41,10.15-44.85
		c2.47-42.55,0.78-85.22-0.91-127.81c-1.92-48.39-3.23-96.94-5.15-145.33c4.28-8.3,8.87-23.11,11.06-32.19h4.81
		C214.54,25.64,209.95,40.44,205.67,48.74z"/>
</g>
</svg>
