<?xml version="1.0" encoding="utf-8"?>
<!-- Generator: Adobe Illustrator 23.0.2, SVG Export Plug-In . SVG Version: 6.00 Build 0)  -->
<svg version="1.1" id="Layer_1" xmlns="http://www.w3.org/2000/svg" xmlns:xlink="http://www.w3.org/1999/xlink" x="0px" y="0px"
	 viewBox="0 0 400 400" style="enable-background:new 0 0 400 400;" xml:space="preserve">
<style type="text/css">
	.st0{fill:none;stroke:#414042;stroke-width:3;stroke-linecap:round;stroke-miterlimit:10;}
	.st1{fill:#939598;stroke:#414042;stroke-width:3;stroke-linecap:round;stroke-miterlimit:10;}
	.st2{fill:#BCBEC0;stroke:#414042;stroke-width:3;stroke-linecap:round;stroke-miterlimit:10;}
</style>
<g>
	<path class="st0" d="M124.42,383.41"/>
	<path class="st0" d="M252.66,51.82"/>
	<path class="st0" d="M147.34,49.91"/>
	<path class="st0" d="M252.66,49.91"/>
	<path class="st0" d="M252.66,51.82"/>
	<path class="st0" d="M124.42,385.15"/>
	<path class="st0" d="M252.66,51.82"/>
	<path class="st0" d="M252.66,51.82"/>
	<path class="st0" d="M277.92,385.32"/>
	<path class="st0" d="M252.66,51.82"/>
	<path class="st1" d="M113.54,61.58c-28.01,4.66,0,0-28.01,4.66C61.2,70.27,46.74,97.96,36.07,120.2
		c-22.03,45.9-13.25,97.55-18.4,148.2c-4.83,47.54,9.38,82.03,12.84,129.69c18.27-2.49,15.54-1.94,33.88,0
		c3.9-33.08,6.89-62.92,7.81-96.22c0.91-32.75,4.23-100.9,26.51-124.92c4.72,19.98,6.44,74.16,7.13,94.68
		c1.58,46.73,16.76,64.93,18.57,111.56c11.37-1.97,22.8-3.91,34.35-4.14c19.8-0.38,39.3,4.3,58.86,7.38s41.65,5.56,60.3-1.12
		c1.77-46.8,6.96-49.09,8.54-95.89c0.69-20.52,10.11-90.59,14.82-110.57c22.28,24.02,25.6,92.17,26.51,124.92
		c0.92,33.3,3.91,63.14,7.81,96.22c18.34-1.94,15.61-2.49,33.88,0c3.46-47.66,17.67-82.15,12.84-129.69
		c-5.15-50.65,3.63-102.3-18.4-148.2c-10.67-22.23-25.13-49.92-49.45-53.97c-28.01-4.66,0,0-28.01-4.66"/>
	<path class="st0" d="M277.92,387.06"/>
	<path class="st1" d="M195.9,100.41c15.03,0.49,30.05-14.14,43.85-20.1c14.74-6.36,38.5-8.43,51.61-17.7
		c-2.72-14.42-7.45-32.13-17.83-49.11c-20.88-13.05-61.58-8.46-92.37-12.68C171.08-0.57,145-1.12,139.01,7.12
		c-16.31,22.42-13.77,23.52-30.61,54.45c5.96,7.3,6.37,10.02,14.74,14.36c3.55,1.84,6.77,4.27,10.37,5.99
		c4.14,1.97,8.68,2.95,13.19,3.79C161.94,88.54,180.39,100.5,195.9,100.41z"/>
	<path class="st2" d="M260.6,27.76c0.56-0.78,1.12-1.61,1.23-2.56c0.28-2.52-2.57-4.12-4.98-4.91c-9.32-3.06-19.05-4.66-28.78-5.9
		c-22.44-2.86-45.11-3.86-67.71-3c-6.61,0.25-13.97,1.03-18.26,6.06c-6.45,7.59-1.74,19.28,4.15,27.31
		c11.07,15.09,34.96,52.32,55.45,43.7C224.52,78.85,246.46,47.55,260.6,27.76z"/>
	<path class="st1" d="M251.47,334.67c-33.98-3.11-77.37-2.59-111.48-1.78c6.62-21.46,9.68-15.85,12.09-30.97
		c2.41-15.12,7.54-40.92,6.1-56.16c15.9-0.15,42.37-1.89,58.27-1.5c12.97,0.32,16.8,1.52,17.68,14.7
		c0.9,13.41,0.22,26.54,2.81,39.86C238.01,304.26,244.51,334.01,251.47,334.67z"/>
	<path class="st0" d="M286.46,63.49"/>
	<path class="st0" d="M113.54,61.58"/>
</g>
</svg>
